EESchema Schematic File Version 4
LIBS:proximity-cache
EELAYER 26 0
EELAYER END
$Descr A4 11693 8268
encoding utf-8
Sheet 1 1
Title ""
Date ""
Rev ""
Comp ""
Comment1 ""
Comment2 ""
Comment3 ""
Comment4 ""
$EndDescr
NoConn ~ 6450 4000
Text GLabel 6450 3400 2    60   Input ~ 0
SDA
Text GLabel 6450 3100 2    60   Input ~ 0
SCL
$Comp
L Device:R R1
U 1 1 5B564A54
P 4350 4000
AR Path="/5B564A54" Ref="R1"  Part="1" 
AR Path="/5B4EF73B/5B564A54" Ref="R?"  Part="1" 
F 0 "R1" V 4430 4000 50  0000 C CNN
F 1 "10k" V 4350 4000 50  0000 C CNN
F 2 "Resistors_SMD:R_0603_HandSoldering" V 4280 4000 50  0001 C CNN
F 3 "" H 4350 4000 50  0001 C CNN
	1    4350 4000
	0    1    1    0   
$EndComp
$Comp
L Device:C C1
U 1 1 5B564A5B
P 7050 3600
AR Path="/5B564A5B" Ref="C1"  Part="1" 
AR Path="/5B4EF73B/5B564A5B" Ref="C?"  Part="1" 
F 0 "C1" H 7075 3700 50  0000 L CNN
F 1 "100n" H 7075 3500 50  0000 L CNN
F 2 "Capacitors_SMD:C_0603_HandSoldering" H 7088 3450 50  0001 C CNN
F 3 "" H 7050 3600 50  0001 C CNN
	1    7050 3600
	1    0    0    -1  
$EndComp
$Comp
L Device:C C2
U 1 1 5B564A62
P 7350 3600
AR Path="/5B564A62" Ref="C2"  Part="1" 
AR Path="/5B4EF73B/5B564A62" Ref="C?"  Part="1" 
F 0 "C2" H 7375 3700 50  0000 L CNN
F 1 "4.7u" H 7375 3500 50  0000 L CNN
F 2 "Capacitors_SMD:C_0603_HandSoldering" H 7388 3450 50  0001 C CNN
F 3 "" H 7350 3600 50  0001 C CNN
	1    7350 3600
	1    0    0    -1  
$EndComp
$Comp
L power:+3V3 #PWR0106
U 1 1 5B564A69
P 4400 2800
AR Path="/5B564A69" Ref="#PWR0106"  Part="1" 
AR Path="/5B4EF73B/5B564A69" Ref="#PWR?"  Part="1" 
F 0 "#PWR0106" H 4400 2650 50  0001 C CNN
F 1 "+3V3" H 4400 2940 50  0000 C CNN
F 2 "" H 4400 2800 50  0001 C CNN
F 3 "" H 4400 2800 50  0001 C CNN
	1    4400 2800
	0    -1   -1   0   
$EndComp
Wire Wire Line
	4400 2800 4500 2800
Wire Wire Line
	4500 2100 4500 2550
Wire Wire Line
	6650 2100 6650 2800
Wire Wire Line
	6450 2800 6650 2800
Connection ~ 4500 2800
Wire Wire Line
	7050 3450 7200 3450
Wire Wire Line
	7200 2800 7200 3450
Connection ~ 7200 3450
Connection ~ 6650 2800
Text GLabel 7100 2250 0    60   Input ~ 0
SDA
Text GLabel 7100 2350 0    60   Input ~ 0
SCL
$Comp
L power:+3V3 #PWR0107
U 1 1 5B564A7B
P 7100 2550
AR Path="/5B564A7B" Ref="#PWR0107"  Part="1" 
AR Path="/5B4EF73B/5B564A7B" Ref="#PWR?"  Part="1" 
F 0 "#PWR0107" H 7100 2400 50  0001 C CNN
F 1 "+3V3" H 7100 2690 50  0000 C CNN
F 2 "" H 7100 2550 50  0001 C CNN
F 3 "" H 7100 2550 50  0001 C CNN
	1    7100 2550
	0    -1   -1   0   
$EndComp
Wire Wire Line
	4500 4000 4600 4000
Wire Wire Line
	4500 2800 4600 2800
Wire Wire Line
	7200 3450 7350 3450
Wire Wire Line
	6650 2800 7200 2800
$Comp
L Connector:Conn_01x04_Female J1
U 1 1 5B564A2B
P 7300 2350
AR Path="/5B564A2B" Ref="J1"  Part="1" 
AR Path="/5B4EF73B/5B564A2B" Ref="J?"  Part="1" 
F 0 "J1" H 7300 2550 50  0000 C CNN
F 1 "Conn_01x04_Female" H 7300 2050 50  0000 C CNN
F 2 "Pin_Headers:Pin_Header_Straight_1x04_Pitch2.00mm" H 7300 2350 50  0001 C CNN
F 3 "" H 7300 2350 50  0001 C CNN
	1    7300 2350
	1    0    0    -1  
$EndComp
$Comp
L power:Earth #PWR0109
U 1 1 5B564A88
P 4200 4000
AR Path="/5B564A88" Ref="#PWR0109"  Part="1" 
AR Path="/5B4EF73B/5B564A88" Ref="#PWR?"  Part="1" 
F 0 "#PWR0109" H 4200 3750 50  0001 C CNN
F 1 "Earth" H 4200 3850 50  0001 C CNN
F 2 "" H 4200 4000 50  0001 C CNN
F 3 "" H 4200 4000 50  0001 C CNN
	1    4200 4000
	0    1    1    0   
$EndComp
$Comp
L power:Earth #PWR0108
U 1 1 5B564A81
P 7100 2450
AR Path="/5B564A81" Ref="#PWR0108"  Part="1" 
AR Path="/5B4EF73B/5B564A81" Ref="#PWR?"  Part="1" 
F 0 "#PWR0108" H 7100 2200 50  0001 C CNN
F 1 "Earth" H 7100 2300 50  0001 C CNN
F 2 "" H 7100 2450 50  0001 C CNN
F 3 "" H 7100 2450 50  0001 C CNN
	1    7100 2450
	0    1    1    0   
$EndComp
$Comp
L power:Earth #PWR0105
U 1 1 5B564A4E
P 5550 2300
AR Path="/5B564A4E" Ref="#PWR0105"  Part="1" 
AR Path="/5B4EF73B/5B564A4E" Ref="#PWR?"  Part="1" 
F 0 "#PWR0105" H 5550 2050 50  0001 C CNN
F 1 "Earth" H 5550 2150 50  0001 C CNN
F 2 "" H 5550 2300 50  0001 C CNN
F 3 "" H 5550 2300 50  0001 C CNN
	1    5550 2300
	-1   0    0    1   
$EndComp
$Comp
L power:Earth #PWR0111
U 1 1 5B564A94
P 7350 3750
AR Path="/5B564A94" Ref="#PWR0111"  Part="1" 
AR Path="/5B4EF73B/5B564A94" Ref="#PWR?"  Part="1" 
F 0 "#PWR0111" H 7350 3500 50  0001 C CNN
F 1 "Earth" H 7350 3600 50  0001 C CNN
F 2 "" H 7350 3750 50  0001 C CNN
F 3 "" H 7350 3750 50  0001 C CNN
	1    7350 3750
	1    0    0    -1  
$EndComp
$Comp
L power:Earth #PWR0110
U 1 1 5B564A8E
P 7050 3750
AR Path="/5B564A8E" Ref="#PWR0110"  Part="1" 
AR Path="/5B4EF73B/5B564A8E" Ref="#PWR?"  Part="1" 
F 0 "#PWR0110" H 7050 3500 50  0001 C CNN
F 1 "Earth" H 7050 3600 50  0001 C CNN
F 2 "" H 7050 3750 50  0001 C CNN
F 3 "" H 7050 3750 50  0001 C CNN
	1    7050 3750
	1    0    0    -1  
$EndComp
$Comp
L power:Earth #PWR0103
U 1 1 5B564A42
P 4600 3400
AR Path="/5B564A42" Ref="#PWR0103"  Part="1" 
AR Path="/5B4EF73B/5B564A42" Ref="#PWR?"  Part="1" 
F 0 "#PWR0103" H 4600 3150 50  0001 C CNN
F 1 "Earth" H 4600 3250 50  0001 C CNN
F 2 "" H 4600 3400 50  0001 C CNN
F 3 "" H 4600 3400 50  0001 C CNN
	1    4600 3400
	0    1    1    0   
$EndComp
$Comp
L power:Earth #PWR0102
U 1 1 5B564A3C
P 4600 3700
AR Path="/5B564A3C" Ref="#PWR0102"  Part="1" 
AR Path="/5B4EF73B/5B564A3C" Ref="#PWR?"  Part="1" 
F 0 "#PWR0102" H 4600 3450 50  0001 C CNN
F 1 "Earth" H 4600 3550 50  0001 C CNN
F 2 "" H 4600 3700 50  0001 C CNN
F 3 "" H 4600 3700 50  0001 C CNN
	1    4600 3700
	0    1    1    0   
$EndComp
$Comp
L power:Earth #PWR0101
U 1 1 5B564A36
P 5550 4450
AR Path="/5B564A36" Ref="#PWR0101"  Part="1" 
AR Path="/5B4EF73B/5B564A36" Ref="#PWR?"  Part="1" 
F 0 "#PWR0101" H 5550 4200 50  0001 C CNN
F 1 "Earth" H 5550 4300 50  0001 C CNN
F 2 "" H 5550 4450 50  0001 C CNN
F 3 "" H 5550 4450 50  0001 C CNN
	1    5550 4450
	1    0    0    -1  
$EndComp
$Comp
L power:Earth #PWR0104
U 1 1 5B564A48
P 4600 3100
AR Path="/5B564A48" Ref="#PWR0104"  Part="1" 
AR Path="/5B4EF73B/5B564A48" Ref="#PWR?"  Part="1" 
F 0 "#PWR0104" H 4600 2850 50  0001 C CNN
F 1 "Earth" H 4600 2950 50  0001 C CNN
F 2 "" H 4600 3100 50  0001 C CNN
F 3 "" H 4600 3100 50  0001 C CNN
	1    4600 3100
	0    1    1    0   
$EndComp
$Comp
L power:PWR_FLAG #FLG0101
U 1 1 5B5B565F
P 4500 2550
F 0 "#FLG0101" H 4500 2625 50  0001 C CNN
F 1 "PWR_FLAG" V 4500 2678 50  0000 L CNN
F 2 "" H 4500 2550 50  0001 C CNN
F 3 "~" H 4500 2550 50  0001 C CNN
	1    4500 2550
	0    -1   -1   0   
$EndComp
Connection ~ 4500 2550
Wire Wire Line
	4500 2550 4500 2800
Wire Wire Line
	4500 2100 6650 2100
$Comp
L power:PWR_FLAG #FLG0102
U 1 1 5B5B99B1
P 4500 3000
F 0 "#FLG0102" H 4500 3075 50  0001 C CNN
F 1 "PWR_FLAG" V 4500 3128 50  0000 L CNN
F 2 "" H 4500 3000 50  0001 C CNN
F 3 "~" H 4500 3000 50  0001 C CNN
	1    4500 3000
	0    -1   -1   0   
$EndComp
Wire Wire Line
	4600 3100 4600 3000
Connection ~ 4600 3100
$Comp
L VL53L0X:VL530L0X U1
U 1 1 5B5B10CF
P 5550 3400
F 0 "U1" H 5525 4700 60  0000 C CNN
F 1 "VL530L0X" H 5525 4594 60  0000 C CNN
F 2 "" H 5500 3550 60  0001 C CNN
F 3 "" H 5500 3550 60  0001 C CNN
	1    5550 3400
	1    0    0    -1  
$EndComp
Wire Wire Line
	4600 3000 4500 3000
$EndSCHEMATC
