EESchema Schematic File Version 4
LIBS:line-cache
EELAYER 26 0
EELAYER END
$Descr A4 11693 8268
encoding utf-8
Sheet 1 1
Title ""
Date ""
Rev ""
Comp ""
Comment1 ""
Comment2 ""
Comment3 ""
Comment4 ""
$EndDescr
$Comp
L Sensor_Proximity:QRE1113 U1
U 1 1 5B5AF8A4
P 5700 3100
F 0 "U1" H 5700 3417 50  0000 C CNN
F 1 "QRE1113" H 5700 3326 50  0000 C CNN
F 2 "OptoDevice:OnSemi_CASE100CY" H 5700 2900 50  0001 C CNN
F 3 "http://www.onsemi.com/pub/Collateral/QRE1113-D.PDF" H 5700 3200 50  0001 C CNN
	1    5700 3100
	1    0    0    -1  
$EndComp
$Comp
L power:GND #PWR02
U 1 1 5B5AFD6F
P 5300 3200
F 0 "#PWR02" H 5300 2950 50  0001 C CNN
F 1 "GND" V 5305 3072 50  0000 R CNN
F 2 "" H 5300 3200 50  0001 C CNN
F 3 "" H 5300 3200 50  0001 C CNN
	1    5300 3200
	0    1    1    0   
$EndComp
$Comp
L power:GND #PWR03
U 1 1 5B5AFD99
P 6100 3200
F 0 "#PWR03" H 6100 2950 50  0001 C CNN
F 1 "GND" V 6105 3072 50  0000 R CNN
F 2 "" H 6100 3200 50  0001 C CNN
F 3 "" H 6100 3200 50  0001 C CNN
	1    6100 3200
	0    -1   -1   0   
$EndComp
$Comp
L Device:R R1
U 1 1 5B5AFED5
P 5150 3000
F 0 "R1" V 4943 3000 50  0000 C CNN
F 1 "100" V 5034 3000 50  0000 C CNN
F 2 "Resistors_SMD:R_0603_HandSoldering" V 5080 3000 50  0001 C CNN
F 3 "~" H 5150 3000 50  0001 C CNN
	1    5150 3000
	0    1    1    0   
$EndComp
$Comp
L Device:R R2
U 1 1 5B5B0029
P 6250 3000
F 0 "R2" V 6043 3000 50  0000 C CNN
F 1 "10k" V 6134 3000 50  0000 C CNN
F 2 "Resistors_SMD:R_0603_HandSoldering" V 6180 3000 50  0001 C CNN
F 3 "~" H 6250 3000 50  0001 C CNN
	1    6250 3000
	0    1    1    0   
$EndComp
Wire Wire Line
	6000 3000 6100 3000
$Comp
L power:+5V #PWR04
U 1 1 5B5B0273
P 6500 3000
F 0 "#PWR04" H 6500 2850 50  0001 C CNN
F 1 "+5V" V 6515 3128 50  0000 L CNN
F 2 "" H 6500 3000 50  0001 C CNN
F 3 "" H 6500 3000 50  0001 C CNN
	1    6500 3000
	0    1    1    0   
$EndComp
$Comp
L power:+5V #PWR01
U 1 1 5B5B02B6
P 4900 3000
F 0 "#PWR01" H 4900 2850 50  0001 C CNN
F 1 "+5V" V 4915 3128 50  0000 L CNN
F 2 "" H 4900 3000 50  0001 C CNN
F 3 "" H 4900 3000 50  0001 C CNN
	1    4900 3000
	0    -1   -1   0   
$EndComp
Wire Wire Line
	5300 3000 5400 3000
Wire Wire Line
	6400 3000 6500 3000
Wire Wire Line
	6000 3200 6100 3200
Wire Wire Line
	5300 3200 5400 3200
Wire Wire Line
	4900 3000 5000 3000
$Comp
L Connector:Conn_01x03_Female J1
U 1 1 5B5B1C4B
P 5900 2400
F 0 "J1" H 5927 2426 50  0000 L CNN
F 1 "Conn_01x03_Female" H 5927 2335 50  0000 L CNN
F 2 "Pin_Headers:Pin_Header_Straight_1x03_Pitch2.00mm" H 5900 2400 50  0001 C CNN
F 3 "~" H 5900 2400 50  0001 C CNN
	1    5900 2400
	1    0    0    -1  
$EndComp
$Comp
L power:+5V #PWR05
U 1 1 5B5B1CE7
P 5700 2300
F 0 "#PWR05" H 5700 2150 50  0001 C CNN
F 1 "+5V" V 5715 2428 50  0000 L CNN
F 2 "" H 5700 2300 50  0001 C CNN
F 3 "" H 5700 2300 50  0001 C CNN
	1    5700 2300
	0    -1   -1   0   
$EndComp
$Comp
L power:GND #PWR06
U 1 1 5B5B1D06
P 5700 2500
F 0 "#PWR06" H 5700 2250 50  0001 C CNN
F 1 "GND" V 5705 2372 50  0000 R CNN
F 2 "" H 5700 2500 50  0001 C CNN
F 3 "" H 5700 2500 50  0001 C CNN
	1    5700 2500
	0    1    1    0   
$EndComp
Text GLabel 6050 3000 1    50   Input ~ 0
OUT
Text GLabel 5700 2400 0    50   Input ~ 0
OUT
$EndSCHEMATC
