EESchema Schematic File Version 4
LIBS:main-cache
LIBS:fucker-cache
EELAYER 26 0
EELAYER END
$Descr A4 11693 8268
encoding utf-8
Sheet 1 1
Title ""
Date ""
Rev ""
Comp ""
Comment1 ""
Comment2 ""
Comment3 ""
Comment4 ""
$EndDescr
$Comp
L MCU_Microchip_ATmega:ATmega32U4-AU U?
U 1 1 5B5B95F1
P 3000 3750
F 0 "U?" H 3000 1864 50  0000 C CNN
F 1 "ATmega32U4-AU" H 3000 1773 50  0000 C CNN
F 2 "Package_QFP:TQFP-44_10x10mm_P0.8mm" H 3000 3750 50  0001 C CIN
F 3 "http://ww1.microchip.com/downloads/en/DeviceDoc/Atmel-7766-8-bit-AVR-ATmega16U4-32U4_Datasheet.pdf" H 3000 3750 50  0001 C CNN
	1    3000 3750
	1    0    0    -1  
$EndComp
$Comp
L power:GND #PWR?
U 1 1 5B5BA213
P 1850 3600
F 0 "#PWR?" H 1850 3350 50  0001 C CNN
F 1 "GND" H 1855 3427 50  0000 C CNN
F 2 "" H 1850 3600 50  0001 C CNN
F 3 "" H 1850 3600 50  0001 C CNN
	1    1850 3600
	1    0    0    -1  
$EndComp
$Comp
L Device:Crystal_GND24 Y?
U 1 1 5B5BA2E6
P 1650 2550
F 0 "Y?" V 1604 2791 50  0000 L CNN
F 1 "16MHz 8pF" V 1695 2791 50  0000 L CNN
F 2 "" H 1650 2550 50  0001 C CNN
F 3 "~" H 1650 2550 50  0001 C CNN
	1    1650 2550
	0    1    1    0   
$EndComp
Wire Wire Line
	1650 2400 2400 2400
Wire Wire Line
	1650 2700 2400 2700
Wire Wire Line
	1650 2700 1650 2800
Wire Wire Line
	1650 2800 1350 2800
Wire Wire Line
	1650 2400 1650 2300
Wire Wire Line
	1650 2300 1350 2300
$Comp
L Device:C C?
U 1 1 5B5BA661
P 1200 2300
F 0 "C?" V 948 2300 50  0000 C CNN
F 1 "6pF" V 1039 2300 50  0000 C CNN
F 2 "Capacitors_SMD:C_0603_HandSoldering" H 1238 2150 50  0001 C CNN
F 3 "~" H 1200 2300 50  0001 C CNN
	1    1200 2300
	0    1    1    0   
$EndComp
$Comp
L Device:C C?
U 1 1 5B5BA6FF
P 1200 2800
F 0 "C?" V 950 2800 50  0000 C CNN
F 1 "6pF" V 1050 2800 50  0000 C CNN
F 2 "Capacitors_SMD:C_0603_HandSoldering" H 1238 2650 50  0001 C CNN
F 3 "~" H 1200 2800 50  0001 C CNN
	1    1200 2800
	0    1    1    0   
$EndComp
$Comp
L Device:R R?
U 1 1 5B5D1360
P 2150 2050
F 0 "R?" H 2080 2004 50  0000 R CNN
F 1 "10k" H 2080 2095 50  0000 R CNN
F 2 "Resistors_SMD:R_0603_HandSoldering" V 2080 2050 50  0001 C CNN
F 3 "~" H 2150 2050 50  0001 C CNN
	1    2150 2050
	-1   0    0    1   
$EndComp
Wire Wire Line
	2400 2400 2400 2450
Wire Wire Line
	2400 2700 2400 2650
$Comp
L power:+5V #PWR?
U 1 1 5B5D1868
P 2150 1800
F 0 "#PWR?" H 2150 1650 50  0001 C CNN
F 1 "+5V" H 2165 1973 50  0000 C CNN
F 2 "" H 2150 1800 50  0001 C CNN
F 3 "" H 2150 1800 50  0001 C CNN
	1    2150 1800
	1    0    0    -1  
$EndComp
$Comp
L Device:C C?
U 1 1 5B5D19C4
P 2150 2900
F 0 "C?" V 1898 2900 50  0000 C CNN
F 1 "100nF" V 1989 2900 50  0000 C CNN
F 2 "Capacitors_SMD:C_0603_HandSoldering" H 2188 2750 50  0001 C CNN
F 3 "~" H 2150 2900 50  0001 C CNN
	1    2150 2900
	0    1    1    0   
$EndComp
Wire Wire Line
	2300 2850 2400 2850
Wire Wire Line
	1850 2900 1050 2900
Connection ~ 1850 2900
Wire Wire Line
	1050 2300 1050 2550
Wire Wire Line
	1450 2550 1050 2550
Connection ~ 1050 2550
Wire Wire Line
	2300 2850 2300 2900
Wire Wire Line
	1850 2900 2000 2900
Wire Wire Line
	1850 2550 1850 2900
$Comp
L power:GND #PWR?
U 1 1 5B5D2DB2
P 2950 5600
F 0 "#PWR?" H 2950 5350 50  0001 C CNN
F 1 "GND" H 2872 5563 50  0000 R CNN
F 2 "" H 2950 5600 50  0001 C CNN
F 3 "" H 2950 5600 50  0001 C CNN
	1    2950 5600
	1    0    0    -1  
$EndComp
$Comp
L Device:C C?
U 1 1 5B5D2EBD
P 3350 1850
F 0 "C?" V 3098 1850 50  0000 C CNN
F 1 "1uF" V 3189 1850 50  0000 C CNN
F 2 "Capacitors_SMD:C_0603_HandSoldering" H 3388 1700 50  0001 C CNN
F 3 "~" H 3350 1850 50  0001 C CNN
	1    3350 1850
	0    1    1    0   
$EndComp
$Comp
L Device:R R?
U 1 1 5B5D3147
P 3100 1650
F 0 "R?" H 3031 1696 50  0000 R CNN
F 1 "0" H 3031 1605 50  0000 R CNN
F 2 "Resistors_SMD:R_0603_HandSoldering" V 3030 1650 50  0001 C CNN
F 3 "~" H 3100 1650 50  0001 C CNN
	1    3100 1650
	1    0    0    -1  
$EndComp
Wire Wire Line
	3000 1950 3000 1450
Wire Wire Line
	3000 1450 3100 1450
Wire Wire Line
	3000 1450 2900 1450
Wire Wire Line
	2900 1450 2900 1950
Connection ~ 3000 1450
$Comp
L power:+5V #PWR?
U 1 1 5B5D3D60
P 3000 900
F 0 "#PWR?" H 3000 750 50  0001 C CNN
F 1 "+5V" H 3015 1073 50  0000 C CNN
F 2 "" H 3000 900 50  0001 C CNN
F 3 "" H 3000 900 50  0001 C CNN
	1    3000 900 
	1    0    0    -1  
$EndComp
$Comp
L power:GND #PWR?
U 1 1 5B5D44E0
P 3600 1900
F 0 "#PWR?" H 3600 1650 50  0001 C CNN
F 1 "GND" H 3605 1727 50  0000 C CNN
F 2 "" H 3600 1900 50  0001 C CNN
F 3 "" H 3600 1900 50  0001 C CNN
	1    3600 1900
	1    0    0    -1  
$EndComp
Text GLabel 2400 3250 0    50   Input ~ 0
D+
Text GLabel 2400 3350 0    50   Input ~ 0
D-
Text GLabel 2400 3050 0    50   Input ~ 0
VBUS
$Comp
L Device:C C?
U 1 1 5B5D4E50
P 2150 3550
F 0 "C?" V 1898 3550 50  0000 C CNN
F 1 "1uF" V 1989 3550 50  0000 C CNN
F 2 "Capacitors_SMD:C_0603_HandSoldering" H 2188 3400 50  0001 C CNN
F 3 "~" H 2150 3550 50  0001 C CNN
	1    2150 3550
	0    1    1    0   
$EndComp
Wire Wire Line
	2300 3550 2400 3550
Wire Wire Line
	1850 2900 1850 3550
Wire Wire Line
	2000 3550 1850 3550
Connection ~ 1850 3550
Wire Wire Line
	1850 3550 1850 3600
$Comp
L Device:C C?
U 1 1 5B5D6123
P 3350 1350
F 0 "C?" V 3098 1350 50  0000 C CNN
F 1 "100nF" V 3189 1350 50  0000 C CNN
F 2 "Capacitors_SMD:C_0603_HandSoldering" H 3388 1200 50  0001 C CNN
F 3 "~" H 3350 1350 50  0001 C CNN
	1    3350 1350
	0    1    1    0   
$EndComp
Wire Wire Line
	2150 1800 2150 1850
$Comp
L Device:D D?
U 1 1 5B5D90A9
P 1950 2050
F 0 "D?" V 1904 2129 50  0000 L CNN
F 1 "S01575" V 1995 2129 50  0000 L CNN
F 2 "Diodes_SMD:D_0603" H 1950 2050 50  0001 C CNN
F 3 "~" H 1950 2050 50  0001 C CNN
	1    1950 2050
	0    1    1    0   
$EndComp
Wire Wire Line
	1950 2250 1950 2200
Wire Wire Line
	1950 1900 1950 1850
Wire Wire Line
	1950 1850 2150 1850
Wire Wire Line
	1950 2250 1700 2250
Wire Wire Line
	1700 2250 1700 2150
Connection ~ 1950 2250
Text GLabel 1700 2150 1    50   Input ~ 0
RESET
Text GLabel 3600 2350 2    50   Input ~ 0
SCK
Text GLabel 3600 2450 2    50   Input ~ 0
MOSI
Text GLabel 3600 2550 2    50   Input ~ 0
MISO
$Comp
L Connector_Generic:Conn_02x03_Odd_Even J?
U 1 1 5B5DB908
P 4900 1350
F 0 "J?" H 4950 1667 50  0000 C CNN
F 1 "Conn_02x03_Odd_Even" H 4950 1576 50  0000 C CNN
F 2 "" H 4900 1350 50  0001 C CNN
F 3 "~" H 4900 1350 50  0001 C CNN
	1    4900 1350
	1    0    0    -1  
$EndComp
Text GLabel 4700 1350 0    50   Input ~ 0
SCK
Text GLabel 5200 1350 2    50   Input ~ 0
MOSI
Text GLabel 4700 1250 0    50   Input ~ 0
MISO
Text GLabel 4700 1450 0    50   Input ~ 0
RESET
Wire Wire Line
	5200 1250 5300 1250
Wire Wire Line
	5300 1250 5300 1150
Wire Wire Line
	5300 1450 5300 1550
Wire Wire Line
	5200 1450 5300 1450
$Comp
L power:+5V #PWR?
U 1 1 5B5DD7BB
P 5300 1150
F 0 "#PWR?" H 5300 1000 50  0001 C CNN
F 1 "+5V" H 5315 1323 50  0000 C CNN
F 2 "" H 5300 1150 50  0001 C CNN
F 3 "" H 5300 1150 50  0001 C CNN
	1    5300 1150
	1    0    0    -1  
$EndComp
$Comp
L power:GND #PWR?
U 1 1 5B5DD8CE
P 5300 1550
F 0 "#PWR?" H 5300 1300 50  0001 C CNN
F 1 "GND" H 5305 1377 50  0000 C CNN
F 2 "" H 5300 1550 50  0001 C CNN
F 3 "" H 5300 1550 50  0001 C CNN
	1    5300 1550
	1    0    0    -1  
$EndComp
$Comp
L Connector:USB_B_Micro J?
U 1 1 5B5DDCA7
P 4150 6450
F 0 "J?" H 4205 6917 50  0000 C CNN
F 1 "USB_B_Micro" H 4205 6826 50  0000 C CNN
F 2 "" H 4300 6400 50  0001 C CNN
F 3 "~" H 4300 6400 50  0001 C CNN
	1    4150 6450
	1    0    0    -1  
$EndComp
$Comp
L power:GND #PWR?
U 1 1 5B5DEADB
P 4300 7100
F 0 "#PWR?" H 4300 6850 50  0001 C CNN
F 1 "GND" H 4305 6927 50  0000 C CNN
F 2 "" H 4300 7100 50  0001 C CNN
F 3 "" H 4300 7100 50  0001 C CNN
	1    4300 7100
	1    0    0    -1  
$EndComp
Text GLabel 5000 6550 2    50   Input ~ 0
D-
Text GLabel 5000 6450 2    50   Input ~ 0
D+
NoConn ~ 4450 6650
Wire Wire Line
	4450 6450 4600 6450
Wire Wire Line
	4650 6550 4500 6550
Wire Wire Line
	4500 6550 4500 6750
Connection ~ 4500 6550
Wire Wire Line
	4500 6550 4450 6550
Connection ~ 4600 6450
Wire Wire Line
	4600 6450 4650 6450
Wire Wire Line
	4600 6450 4600 6750
Wire Wire Line
	4050 6850 4100 6850
Wire Wire Line
	4100 6850 4100 7050
Wire Wire Line
	4100 7050 4300 7050
Connection ~ 4100 6850
Wire Wire Line
	4100 6850 4150 6850
Connection ~ 4300 7050
$Comp
L Device:Varistor RV?
U 1 1 5B5E2EEF
P 4500 6900
F 0 "RV?" H 4379 6854 50  0000 R CNN
F 1 "CG0603MLC-05E" H 4379 6945 50  0000 R CNN
F 2 "Resistors_SMD:R_0603_HandSoldering" V 4430 6900 50  0001 C CNN
F 3 "~" H 4500 6900 50  0001 C CNN
	1    4500 6900
	-1   0    0    1   
$EndComp
$Comp
L Device:Varistor RV?
U 1 1 5B5E5F53
P 4600 6900
F 0 "RV?" H 4479 6854 50  0000 R CNN
F 1 "CG0603MLC-05E" H 4479 6945 50  0000 R CNN
F 2 "Resistors_SMD:R_0603_HandSoldering" V 4530 6900 50  0001 C CNN
F 3 "~" H 4600 6900 50  0001 C CNN
	1    4600 6900
	-1   0    0    1   
$EndComp
Wire Wire Line
	4300 7050 4300 7100
$Comp
L Device:R R?
U 1 1 5B5E4D42
P 4800 6450
F 0 "R?" V 4593 6450 50  0000 C CNN
F 1 "22" V 4684 6450 50  0000 C CNN
F 2 "Resistors_SMD:R_0603_HandSoldering" V 4730 6450 50  0001 C CNN
F 3 "~" H 4800 6450 50  0001 C CNN
	1    4800 6450
	0    1    1    0   
$EndComp
$Comp
L Device:R R?
U 1 1 5B5E4F29
P 4800 6550
F 0 "R?" V 4915 6550 50  0000 C CNN
F 1 "22" V 5006 6550 50  0000 C CNN
F 2 "Resistors_SMD:R_0603_HandSoldering" V 4730 6550 50  0001 C CNN
F 3 "~" H 4800 6550 50  0001 C CNN
	1    4800 6550
	0    1    1    0   
$EndComp
Wire Wire Line
	5000 6550 4950 6550
Wire Wire Line
	4950 6450 5000 6450
Wire Wire Line
	1050 2550 1050 2800
Wire Wire Line
	2900 5550 2950 5550
Wire Wire Line
	4300 7050 4500 7050
Wire Wire Line
	4450 6250 4600 6250
$Comp
L Device:Fuse F?
U 1 1 5B5FBFBA
P 5200 5650
F 0 "F?" V 5003 5650 50  0000 C CNN
F 1 "MF-MSMF050" V 5094 5650 50  0000 C CNN
F 2 "Resistors_SMD:R_1812_HandSoldering" V 5130 5650 50  0001 C CNN
F 3 "~" H 5200 5650 50  0001 C CNN
	1    5200 5650
	0    1    1    0   
$EndComp
Wire Wire Line
	4600 5650 4600 6250
Wire Wire Line
	4600 5650 4800 5650
Wire Wire Line
	4800 5650 5050 5650
Connection ~ 4800 5650
$Comp
L Device:R R?
U 1 1 5B601854
P 5700 5800
F 0 "R?" H 5630 5754 50  0000 R CNN
F 1 "10k" H 5630 5845 50  0000 R CNN
F 2 "Resistors_SMD:R_0603_HandSoldering" V 5630 5800 50  0001 C CNN
F 3 "~" H 5700 5800 50  0001 C CNN
	1    5700 5800
	-1   0    0    1   
$EndComp
$Comp
L Device:C C?
U 1 1 5B60191C
P 5550 5800
F 0 "C?" H 5664 5754 50  0000 L CNN
F 1 "100nF" H 5664 5845 50  0000 L CNN
F 2 "Capacitors_SMD:C_0603_HandSoldering" H 5588 5650 50  0001 C CNN
F 3 "~" H 5550 5800 50  0001 C CNN
	1    5550 5800
	-1   0    0    1   
$EndComp
Wire Wire Line
	5350 5650 5550 5650
Wire Wire Line
	5700 5650 5550 5650
Connection ~ 5550 5650
Wire Wire Line
	2950 5600 2950 5550
Connection ~ 2950 5550
Wire Wire Line
	2950 5550 3000 5550
Connection ~ 1050 2800
Wire Wire Line
	1050 2800 1050 2900
Connection ~ 4500 7050
Wire Wire Line
	4500 7050 4600 7050
$Comp
L power:GND #PWR?
U 1 1 5B60D35F
P 5200 6000
F 0 "#PWR?" H 5200 5750 50  0001 C CNN
F 1 "GND" H 5205 5827 50  0000 C CNN
F 2 "" H 5200 6000 50  0001 C CNN
F 3 "" H 5200 6000 50  0001 C CNN
	1    5200 6000
	1    0    0    -1  
$EndComp
Wire Wire Line
	5550 5950 5200 5950
Connection ~ 5550 5950
Wire Wire Line
	5550 5950 5700 5950
Wire Wire Line
	5200 5950 5200 6000
Connection ~ 5200 5950
Wire Wire Line
	5200 5950 4800 5950
Wire Wire Line
	5700 5650 5850 5650
Connection ~ 5700 5650
Text GLabel 5850 5650 2    50   Input ~ 0
VBUS
Connection ~ 1650 2400
Connection ~ 1650 2700
$Comp
L Device:C C?
U 1 1 5B616E24
P 3350 950
F 0 "C?" V 3098 950 50  0000 C CNN
F 1 "100nF" V 3189 950 50  0000 C CNN
F 2 "Capacitors_SMD:C_0603_HandSoldering" H 3388 800 50  0001 C CNN
F 3 "~" H 3350 950 50  0001 C CNN
	1    3350 950 
	0    1    1    0   
$EndComp
Wire Wire Line
	7500 1150 7300 1150
Connection ~ 7300 1150
Wire Wire Line
	7300 1150 7150 1150
Wire Wire Line
	8150 1950 8200 1950
Wire Wire Line
	8200 1950 8200 2000
Connection ~ 8200 1950
Wire Wire Line
	8200 1950 8250 1950
$Comp
L power:GND #PWR?
U 1 1 5B64681A
P 7300 1500
F 0 "#PWR?" H 7300 1250 50  0001 C CNN
F 1 "GND" H 7305 1327 50  0000 C CNN
F 2 "" H 7300 1500 50  0001 C CNN
F 3 "" H 7300 1500 50  0001 C CNN
	1    7300 1500
	1    0    0    -1  
$EndComp
Text GLabel 7150 1150 0    50   Input ~ 0
VIN
$Comp
L Device:CP C?
U 1 1 5B64F44A
P 4800 5800
F 0 "C?" H 4918 5846 50  0000 L CNN
F 1 "22uF" H 4918 5755 50  0000 L CNN
F 2 "" H 4838 5650 50  0001 C CNN
F 3 "~" H 4800 5800 50  0001 C CNN
	1    4800 5800
	1    0    0    -1  
$EndComp
Wire Wire Line
	7650 1350 7500 1350
Wire Wire Line
	7500 1150 7500 1350
$Comp
L Device:L L?
U 1 1 5B660BB4
P 9400 1550
F 0 "L?" V 9590 1550 50  0000 C CNN
F 1 "10uH" V 9499 1550 50  0000 C CNN
F 2 "" H 9400 1550 50  0001 C CNN
F 3 "~" H 9400 1550 50  0001 C CNN
	1    9400 1550
	0    -1   -1   0   
$EndComp
$Comp
L Device:C C?
U 1 1 5B6731B6
P 9700 1750
F 0 "C?" H 9586 1704 50  0000 R CNN
F 1 "47uF" H 9586 1795 50  0000 R CNN
F 2 "Capacitors_SMD:C_0603_HandSoldering" H 9738 1600 50  0001 C CNN
F 3 "~" H 9700 1750 50  0001 C CNN
	1    9700 1750
	1    0    0    1   
$EndComp
Wire Wire Line
	7500 1550 7500 1350
Wire Wire Line
	7500 1550 7650 1550
Connection ~ 7500 1350
NoConn ~ 7650 1750
$Comp
L Device:C C?
U 1 1 5B652886
P 10100 1750
F 0 "C?" H 9986 1704 50  0000 R CNN
F 1 "47uF" H 9986 1795 50  0000 R CNN
F 2 "Capacitors_SMD:C_0603_HandSoldering" H 10138 1600 50  0001 C CNN
F 3 "~" H 10100 1750 50  0001 C CNN
	1    10100 1750
	1    0    0    1   
$EndComp
$Comp
L power:GND #PWR?
U 1 1 5B67AF50
P 8200 2000
F 0 "#PWR?" H 8200 1750 50  0001 C CNN
F 1 "GND" H 8205 1827 50  0000 C CNN
F 2 "" H 8200 2000 50  0001 C CNN
F 3 "" H 8200 2000 50  0001 C CNN
	1    8200 2000
	1    0    0    -1  
$EndComp
$Comp
L Regulator_Switching:ADP2302ARDZ-5.0 U?
U 1 1 5B6A8F02
P 8150 1550
F 0 "U?" H 8150 2017 50  0000 C CNN
F 1 "ADP2302ARDZ-5.0" H 8150 1926 50  0000 C CNN
F 2 "Package_SO:SOIC-8-1EP_3.9x4.9mm_P1.27mm_EP2.35x2.35mm" H 8300 1200 50  0001 L CNN
F 3 "http://www.analog.com/media/en/technical-documentation/data-sheets/ADP2302_2303.pdf" H 7950 2150 50  0001 C CNN
	1    8150 1550
	1    0    0    -1  
$EndComp
$Comp
L Device:C C?
U 1 1 5B6AE7FB
P 7300 1300
F 0 "C?" H 7414 1254 50  0000 L CNN
F 1 "10uF" H 7414 1345 50  0000 L CNN
F 2 "Capacitors_SMD:C_0603_HandSoldering" H 7338 1150 50  0001 C CNN
F 3 "~" H 7300 1300 50  0001 C CNN
	1    7300 1300
	-1   0    0    1   
$EndComp
$Comp
L Diode:B220 D?
U 1 1 5B6AEC44
P 9100 1750
F 0 "D?" V 9054 1829 50  0000 L CNN
F 1 "B220" V 9145 1829 50  0000 L CNN
F 2 "Diode_SMD:D_SMB" H 9100 1575 50  0001 C CNN
F 3 "http://www.jameco.com/Jameco/Products/ProdDS/1538777.pdf" H 9100 1750 50  0001 C CNN
	1    9100 1750
	0    1    1    0   
$EndComp
$Comp
L Device:C C?
U 1 1 5B6AF125
P 10500 1750
F 0 "C?" H 10386 1704 50  0000 R CNN
F 1 "47uF" H 10386 1795 50  0000 R CNN
F 2 "Capacitors_SMD:C_0603_HandSoldering" H 10538 1600 50  0001 C CNN
F 3 "~" H 10500 1750 50  0001 C CNN
	1    10500 1750
	1    0    0    1   
$EndComp
$Comp
L Device:C C?
U 1 1 5B64A8CF
P 8900 1350
F 0 "C?" V 9152 1350 50  0000 C CNN
F 1 "0.1uF" V 9061 1350 50  0000 C CNN
F 2 "Capacitors_SMD:C_0603_HandSoldering" H 8938 1200 50  0001 C CNN
F 3 "~" H 8900 1350 50  0001 C CNN
	1    8900 1350
	0    -1   -1   0   
$EndComp
Wire Wire Line
	8650 1550 9100 1550
Connection ~ 9100 1550
$Comp
L power:GND #PWR?
U 1 1 5B6F1010
P 9400 2000
F 0 "#PWR?" H 9400 1750 50  0001 C CNN
F 1 "GND" H 9405 1827 50  0000 C CNN
F 2 "" H 9400 2000 50  0001 C CNN
F 3 "" H 9400 2000 50  0001 C CNN
	1    9400 2000
	1    0    0    -1  
$EndComp
Wire Wire Line
	9100 1550 9250 1550
Wire Wire Line
	7300 1500 7300 1450
$Comp
L power:+5V #PWR?
U 1 1 5B70E032
P 10700 1500
F 0 "#PWR?" H 10700 1350 50  0001 C CNN
F 1 "+5V" H 10715 1673 50  0000 C CNN
F 2 "" H 10700 1500 50  0001 C CNN
F 3 "" H 10700 1500 50  0001 C CNN
	1    10700 1500
	1    0    0    -1  
$EndComp
$Comp
L power:+5V #PWR?
U 1 1 5B70E15B
P 8700 1750
F 0 "#PWR?" H 8700 1600 50  0001 C CNN
F 1 "+5V" H 8788 1787 50  0000 L CNN
F 2 "" H 8700 1750 50  0001 C CNN
F 3 "" H 8700 1750 50  0001 C CNN
	1    8700 1750
	1    0    0    -1  
$EndComp
Wire Wire Line
	8650 1750 8700 1750
$Comp
L Regulator_Switching:ADP2108AUJ-3.3 U?
U 1 1 5B713CBE
P 8450 3300
F 0 "U?" H 8450 3625 50  0000 C CNN
F 1 "ADP2108AUJ-3.3" H 8450 3534 50  0000 C CNN
F 2 "Package_TO_SOT_SMD:TSOT-23-5" H 8500 3050 50  0001 L CNN
F 3 "http://www.analog.com/media/en/technical-documentation/data-sheets/ADP2108.pdf" H 8200 2950 50  0001 C CNN
	1    8450 3300
	1    0    0    -1  
$EndComp
Wire Wire Line
	8650 1350 8750 1350
Wire Wire Line
	9100 1350 9050 1350
Wire Wire Line
	9100 1350 9100 1550
Wire Wire Line
	9550 1550 9700 1550
Wire Wire Line
	9700 1600 9700 1550
Connection ~ 9700 1550
Wire Wire Line
	9700 1900 9700 1950
Connection ~ 9700 1950
Wire Wire Line
	9400 2000 9400 1950
Wire Wire Line
	9100 1950 9400 1950
Connection ~ 9400 1950
Wire Wire Line
	9400 1950 9700 1950
Wire Wire Line
	10500 1950 10500 1900
Wire Wire Line
	10500 1600 10500 1550
Connection ~ 10500 1550
Wire Wire Line
	9700 1550 10100 1550
Wire Wire Line
	9700 1950 10100 1950
Wire Wire Line
	10100 1900 10100 1950
Connection ~ 10100 1950
Wire Wire Line
	10100 1600 10100 1550
Connection ~ 10100 1550
Wire Wire Line
	10100 1550 10500 1550
Wire Wire Line
	10100 1950 10500 1950
Wire Wire Line
	10500 1550 10700 1550
Wire Wire Line
	10700 1550 10700 1500
Wire Wire Line
	10700 1550 10750 1550
Connection ~ 10700 1550
Text GLabel 10750 1550 2    50   Input ~ 0
VIN5V
Wire Wire Line
	3100 1500 3100 1450
Wire Wire Line
	3500 950  3600 950 
Wire Wire Line
	3100 1800 3100 1850
Wire Wire Line
	3200 950  3000 950 
Wire Wire Line
	3000 950  3000 900 
Wire Wire Line
	3000 950  3000 1350
Connection ~ 3000 950 
Wire Wire Line
	3200 1350 3000 1350
Connection ~ 3000 1350
Wire Wire Line
	3000 1350 3000 1450
Wire Wire Line
	3600 950  3600 1350
Wire Wire Line
	3500 1350 3600 1350
Connection ~ 3600 1350
Wire Wire Line
	3600 1350 3600 1850
Wire Wire Line
	3500 1850 3600 1850
Connection ~ 3600 1850
Wire Wire Line
	3600 1850 3600 1900
Wire Wire Line
	3200 1850 3100 1850
Connection ~ 3100 1850
Wire Wire Line
	3100 1850 3100 1950
Wire Wire Line
	1950 2250 2150 2250
Wire Wire Line
	2150 1850 2150 1900
Connection ~ 2150 1850
Wire Wire Line
	2150 2200 2150 2250
Connection ~ 2150 2250
Wire Wire Line
	2150 2250 2400 2250
Wire Wire Line
	8050 3000 7850 3000
Connection ~ 7850 3000
Wire Wire Line
	7850 3000 7700 3000
$Comp
L power:GND #PWR?
U 1 1 5B7CC5AA
P 7850 3350
F 0 "#PWR?" H 7850 3100 50  0001 C CNN
F 1 "GND" H 7855 3177 50  0000 C CNN
F 2 "" H 7850 3350 50  0001 C CNN
F 3 "" H 7850 3350 50  0001 C CNN
	1    7850 3350
	1    0    0    -1  
$EndComp
Text GLabel 7700 3000 0    50   Input ~ 0
VIN5V
Wire Wire Line
	8050 3000 8050 3200
Wire Wire Line
	8050 3300 8050 3200
Connection ~ 8050 3200
$Comp
L Device:C C?
U 1 1 5B7CC5B6
P 7850 3150
F 0 "C?" H 7964 3104 50  0000 L CNN
F 1 "4.7uF" H 7964 3195 50  0000 L CNN
F 2 "Capacitors_SMD:C_0603_HandSoldering" H 7888 3000 50  0001 C CNN
F 3 "~" H 7850 3150 50  0001 C CNN
	1    7850 3150
	-1   0    0    1   
$EndComp
Wire Wire Line
	7850 3350 7850 3300
$Comp
L power:GND #PWR?
U 1 1 5B7D7577
P 8450 3650
F 0 "#PWR?" H 8450 3400 50  0001 C CNN
F 1 "GND" H 8455 3477 50  0000 C CNN
F 2 "" H 8450 3650 50  0001 C CNN
F 3 "" H 8450 3650 50  0001 C CNN
	1    8450 3650
	1    0    0    -1  
$EndComp
Wire Wire Line
	8450 3650 8450 3600
$Comp
L Device:L L?
U 1 1 5B7DB30B
P 9000 3200
F 0 "L?" V 9190 3200 50  0000 C CNN
F 1 "1uH" V 9099 3200 50  0000 C CNN
F 2 "" H 9000 3200 50  0001 C CNN
F 3 "~" H 9000 3200 50  0001 C CNN
	1    9000 3200
	0    -1   -1   0   
$EndComp
Wire Wire Line
	8750 3200 8850 3200
Wire Wire Line
	8050 3200 8150 3200
Wire Wire Line
	8050 3300 8150 3300
Wire Wire Line
	9150 3200 9250 3200
Wire Wire Line
	9250 3200 9250 3400
Wire Wire Line
	9250 3400 8750 3400
Connection ~ 9250 3200
$Comp
L Device:C C?
U 1 1 5B807F7A
P 9400 3400
F 0 "C?" H 9285 3354 50  0000 R CNN
F 1 "10uF" H 9285 3445 50  0000 R CNN
F 2 "Capacitors_SMD:C_0603_HandSoldering" H 9438 3250 50  0001 C CNN
F 3 "~" H 9400 3400 50  0001 C CNN
	1    9400 3400
	-1   0    0    1   
$EndComp
Wire Wire Line
	9250 3200 9400 3200
$Comp
L power:GND #PWR?
U 1 1 5B80C34F
P 9400 3600
F 0 "#PWR?" H 9400 3350 50  0001 C CNN
F 1 "GND" H 9405 3427 50  0000 C CNN
F 2 "" H 9400 3600 50  0001 C CNN
F 3 "" H 9400 3600 50  0001 C CNN
	1    9400 3600
	1    0    0    -1  
$EndComp
Wire Wire Line
	9400 3600 9400 3550
Wire Wire Line
	9400 3250 9400 3200
Wire Wire Line
	9400 3200 9600 3200
Wire Wire Line
	9600 3200 9600 3150
Connection ~ 9400 3200
$Comp
L power:+3V3 #PWR?
U 1 1 5B824B60
P 9600 3150
F 0 "#PWR?" H 9600 3000 50  0001 C CNN
F 1 "+3V3" H 9615 3323 50  0000 C CNN
F 2 "" H 9600 3150 50  0001 C CNN
F 3 "" H 9600 3150 50  0001 C CNN
	1    9600 3150
	1    0    0    -1  
$EndComp
Wire Wire Line
	9100 1600 9100 1550
Wire Wire Line
	9100 1950 9100 1900
$Comp
L Device:Q_PMOS_DSG Q?
U 1 1 5B6A420E
P 5300 3600
F 0 "Q?" V 5643 3600 50  0000 C CNN
F 1 "PMV48XP" V 5552 3600 50  0000 C CNN
F 2 "" H 5500 3700 50  0001 C CNN
F 3 "~" H 5300 3600 50  0001 C CNN
	1    5300 3600
	0    -1   -1   0   
$EndComp
$Comp
L Device:Q_PMOS_DSG Q?
U 1 1 5B6A4428
P 5200 4300
F 0 "Q?" H 5406 4254 50  0000 L CNN
F 1 "PMV48XP" H 5406 4345 50  0000 L CNN
F 2 "" H 5400 4400 50  0001 C CNN
F 3 "~" H 5200 4300 50  0001 C CNN
	1    5200 4300
	1    0    0    1   
$EndComp
Wire Wire Line
	5300 4500 5300 4550
$Comp
L Device:R_Small R?
U 1 1 5B6A475B
P 4900 4450
F 0 "R?" H 4841 4496 50  0000 R CNN
F 1 "10k" H 4841 4405 50  0000 R CNN
F 2 "" H 4900 4450 50  0001 C CNN
F 3 "~" H 4900 4450 50  0001 C CNN
	1    4900 4450
	1    0    0    -1  
$EndComp
$Comp
L power:GND #PWR?
U 1 1 5B6A4983
P 4900 4600
F 0 "#PWR?" H 4900 4350 50  0001 C CNN
F 1 "GND" H 4905 4427 50  0000 C CNN
F 2 "" H 4900 4600 50  0001 C CNN
F 3 "" H 4900 4600 50  0001 C CNN
	1    4900 4600
	1    0    0    -1  
$EndComp
Text GLabel 4600 3900 0    50   Input ~ 0
VIN
Text GLabel 5350 4550 2    50   Input ~ 0
VUSB
$Comp
L power:+5V #PWR?
U 1 1 5B6A5044
P 5400 3900
F 0 "#PWR?" H 5400 3750 50  0001 C CNN
F 1 "+5V" H 5488 3937 50  0000 L CNN
F 2 "" H 5400 3900 50  0001 C CNN
F 3 "" H 5400 3900 50  0001 C CNN
	1    5400 3900
	1    0    0    -1  
$EndComp
Wire Wire Line
	4700 3500 4700 3900
Text GLabel 5500 3500 2    50   Input ~ 0
VIN5V
Wire Wire Line
	5350 4550 5300 4550
Wire Wire Line
	4700 4300 4900 4300
Wire Wire Line
	4900 4350 4900 4300
Connection ~ 4900 4300
Wire Wire Line
	4900 4300 5000 4300
Wire Wire Line
	4900 4600 4900 4550
Wire Wire Line
	4700 3500 5100 3500
Wire Wire Line
	4600 3900 4700 3900
Connection ~ 4700 3900
Wire Wire Line
	4700 3900 4700 4300
Wire Wire Line
	5300 3800 5300 3900
Wire Wire Line
	5400 3900 5300 3900
Connection ~ 5300 3900
Wire Wire Line
	5300 3900 5300 4100
Text GLabel 3600 3550 2    50   Input ~ 0
SDA
Text GLabel 3600 3450 2    50   Input ~ 0
SCL
$EndSCHEMATC
